AUTHENTICATED
05/10/2020 7:7:32 - READY
05/10/2020 7:7:32 - MESSAGE RECEIVED
Message {
  mediaKey: '7eLRtRD9Dpxy2dfbT3ixeUDKoy9HhSioUuSoYGvsmpg=',
  id: {
    fromMe: false,
    remote: '554899060035-1545324220@g.us',
    id: '16DD70C27B4F82514EA7F0CD2B3E8923',
    _serialized: 'false_554899060035-1545324220@g.us_16DD70C27B4F82514EA7F0CD2B3E8923'
  },
  ack: -1,
  hasMedia: true,
  body: 'kmi 221005 | 04.580.206/0001-99 | CC000243 | 20201003 | MGF3806 | LM X Tidão Telas',
  type: 'image',
  timestamp: 1601894265,
  from: '554899060035-1545324220@g.us',
  to: '554899060236@c.us',
  author: '554891293933@c.us',
  isForwarded: false,
  broadcast: false,
  fromMe: false,
  hasQuotedMsg: false,
  location: undefined,
  mentionedIds: []
}
05/10/2020 7:7:32 - Error 04
null
05/10/2020 7:7:32 - MESSAGE RECEIVED
Message {
  mediaKey: undefined,
  id: {
    fromMe: false,
    remote: '554899060035-1545324220@g.us',
    id: '321B05898786A1521B815AFF2FA40CB0',
    _serialized: 'false_554899060035-1545324220@g.us_321B05898786A1521B815AFF2FA40CB0'
  },
  ack: -1,
  hasMedia: false,
  body: 'Apagar_deslocamento: 51',
  type: 'chat',
  timestamp: 1601894282,
  from: '554899060035-1545324220@g.us',
  to: '554899060236@c.us',
  author: '554891293933@c.us',
  isForwarded: false,
  broadcast: false,
  fromMe: false,
  hasQuotedMsg: false,
  location: undefined,
  mentionedIds: []
}
05/10/2020 7:7:32 - MESSAGE RECEIVED
Message {
  mediaKey: 'i6FKq6mITvQGociN/j2WtTqsf3BDN9UmfnG8Sxz5+4U=',
  id: {
    fromMe: false,
    remote: '554899060035-1545324220@g.us',
    id: 'FB333F5EA277D2E5B1FCC2119B005060',
    _serialized: 'false_554899060035-1545324220@g.us_FB333F5EA277D2E5B1FCC2119B005060'
  },
  ack: -1,
  hasMedia: true,
  body: 'kmi 221005 | 04.580.206/0001-99 | CC000243 | 20201005 | MGF3806 | LM X Tidão Telas',
  type: 'image',
  timestamp: 1601894315,
  from: '554899060035-1545324220@g.us',
  to: '554899060236@c.us',
  author: '554891293933@c.us',
  isForwarded: false,
  broadcast: false,
  fromMe: false,
  hasQuotedMsg: false,
  location: undefined,
  mentionedIds: []
}
05/10/2020 7:7:32 - Error 04
null
05/10/2020 7:7:32 - MESSAGE RECEIVED
Message {
  mediaKey: undefined,
  id: {
    fromMe: false,
    remote: 'status@broadcast',
    id: 'C1260C9A7E5A227A1D0852B03A11B928',
    _serialized: 'false_status@broadcast_C1260C9A7E5A227A1D0852B03A11B928'
  },
  ack: -1,
  hasMedia: false,
  body: 'Bom dia meu Ori!!!🙏🏻🙏🏻🙏🏻\n' +
    '\n' +
    'Muito obrigado pelo amanhecer maravilhoso!😎😎😎\n' +
    '\n' +
    'Entendedores Entenderão!!! 👻🤭🤫',
  type: 'chat',
  timestamp: 1601904229,
  from: 'status@broadcast',
  to: '554899060236@c.us',
  author: '555185757718@c.us',
  isForwarded: false,
  broadcast: false,
  fromMe: false,
  hasQuotedMsg: false,
  location: undefined,
  mentionedIds: []
}
05/10/2020 7:7:32 - MESSAGE RECEIVED
Message {
  mediaKey: undefined,
  id: {
    fromMe: false,
    remote: 'status@broadcast',
    id: 'F29B1ED4276E999FCD95FE17BB3E5B0A',
    _serialized: 'false_status@broadcast_F29B1ED4276E999FCD95FE17BB3E5B0A'
  },
  ack: -1,
  hasMedia: false,
  body: 'E o povo que vive em "NÁRNIA", ou do outro "Lado do Espelho" e acredita estar no "Mundo Real"!😂🤣😂🤣\n' +
    '\n' +
    'Como eu gostaria de tbm poder deixar meus problemas e viver aonde tudo convém, mas a realidade e a lucidez não me permite. 🤔🤔🤔',
  type: 'chat',
  timestamp: 1601904520,
  from: 'status@broadcast',
  to: '554899060236@c.us',
  author: '555185757718@c.us',
  isForwarded: false,
  broadcast: false,
  fromMe: false,
  hasQuotedMsg: false,
  location: undefined,
  mentionedIds: []
}
05/10/2020 7:7:32 - MESSAGE RECEIVED
Message {
  mediaKey: 'lXiOgDpQTHcXEWxM/KfPkPaiQzh8nEdfONpxYITwd9o=',
  id: {
    fromMe: false,
    remote: 'status@broadcast',
    id: '4E83E3F84B18DD7D1E9A75E8839EB8BE',
    _serialized: 'false_status@broadcast_4E83E3F84B18DD7D1E9A75E8839EB8BE'
  },
  ack: -1,
  hasMedia: true,
  body: 'As lembranças do face! 😂😂😂 Que cidadão afrontoso!!!😎😎😎',
  type: 'image',
  timestamp: 1601912093,
  from: 'status@broadcast',
  to: '554899060236@c.us',
  author: '555185757718@c.us',
  isForwarded: false,
  broadcast: false,
  fromMe: false,
  hasQuotedMsg: false,
  location: undefined,
  mentionedIds: []
}
05/10/2020 7:7:32 - MESSAGE RECEIVED
Message {
  mediaKey: 'ehvbyLs5zAsKDpbDJkXI8Ka4axAjGultNnuAvPGShZY=',
  id: {
    fromMe: false,
    remote: '554899060035-1579529934@g.us',
    id: 'FFC13381F6E130F44A24ECAD65B59BDB',
    _serialized: 'false_554899060035-1579529934@g.us_FFC13381F6E130F44A24ECAD65B59BDB'
  },
  ack: -1,
  hasMedia: true,
  body: 'Desp 49,15 | CNPJ 03.584.234/0001-11 |  CC000243 | 20201005 |Cartão Final 1500 | Almoço 2 pessoas',
  type: 'image',
  timestamp: 1601912463,
  from: '554899060035-1579529934@g.us',
  to: '554899060236@c.us',
  author: '554891293933@c.us',
  isForwarded: false,
  broadcast: false,
  fromMe: false,
  hasQuotedMsg: false,
  location: undefined,
  mentionedIds: []
}
05/10/2020 7:7:32 - Error 02
null
